^C:\USERS\JAVAJUMPER\SOURCE\REPOS\LAB13\TASK 4\X64\DEBUG\TASK 4.OBJ
C:\USERS\JAVAJUMPER\SOURCE\REPOS\LAB13\TASK 4\X64\DEBUG\TASK 4.ILK
C:\USERS\JAVAJUMPER\SOURCE\REPOS\LAB13\X64\DEBUG\TASK 4.EXE
C:\USERS\JAVAJUMPER\SOURCE\REPOS\LAB13\X64\DEBUG\TASK 4.PDB
