^C:\USERS\JAVAJUMPER\SOURCE\REPOS\LAB13\TASK 3\TASK 3.CPP
C:\USERS\JAVAJUMPER\SOURCE\REPOS\LAB13\TASK 3\X64\DEBUG\VC143.PDB
C:\USERS\JAVAJUMPER\SOURCE\REPOS\LAB13\TASK 3\X64\DEBUG\VC143.IDB
C:\USERS\JAVAJUMPER\SOURCE\REPOS\LAB13\TASK 3\X64\DEBUG\TASK 3.OBJ
